{
  "connection": "default",
  "collectionName": "classes",
  "info": {
    "name": "class",
    "description": ""
  },
  "options": {
    "increments": true,
    "timestamps": true,
    "comment": ""
  },
  "attributes": {
    "name": {
      "type": "string"
    },
    "school": {
      "model": "school",
      "via": "classes"
    },
    "users": {
      "collection": "user",
      "via": "class",
      "plugin": "users-permissions"
    }
  }
}