{
  "connection": "default",
  "collectionName": "schools",
  "info": {
    "name": "school",
    "description": ""
  },
  "options": {
    "increments": true,
    "timestamps": true,
    "comment": ""
  },
  "attributes": {
    "name": {
      "type": "string"
    },
    "classes": {
      "collection": "class",
      "via": "school"
    },
    "tallages": {
      "collection": "tallage",
      "via": "school"
    }
  }
}